…
ErmineJ

``` r
#Get Data
(geneList <- read_csv("ranked_gene_list.csv"))
```

    ## Parsed with column specification:
    ## cols(
    ##   gene = col_character(),
    ##   logFC = col_double()
    ## )

    ## # A tibble: 17,421 x 2
    ##    gene       logFC
    ##    <chr>      <dbl>
    ##  1 A1BG     -4.57  
    ##  2 A1BG-AS1  0.190 
    ##  3 A1CF     -3.15  
    ##  4 A2M      -1.08  
    ##  5 A2M-AS1   0.760 
    ##  6 A4GALT   -0.131 
    ##  7 A4GNT     0.169 
    ##  8 AA06      0.0212
    ##  9 AAAS     -0.192 
    ## 10 AACS      0.345 
    ## # ... with 17,411 more rows

``` r
(mfScores <- read_csv("gene_multifunctionality_scores.csv"))
```

    ## Parsed with column specification:
    ## cols(
    ##   gene = col_character(),
    ##   MF.score = col_double()
    ## )

    ## # A tibble: 18,402 x 2
    ##    gene     MF.score
    ##    <chr>       <dbl>
    ##  1 MEF2C   0.000762 
    ##  2 MEF2A   0.000729 
    ##  3 OPA1    0.0000886
    ##  4 SLC25A4 0.000116 
    ##  5 TYMP    0.000159 
    ##  6 LONP1   0.000357 
    ##  7 MPV17   0.0000162
    ##  8 MGME1   0.0000578
    ##  9 PIF1    0.000347 
    ## 10 MRPL17  0.0000136
    ## # ... with 18,392 more rows
…
``` r
enrichmentResult <- precRecall(scores = ermineInputGeneScores, 
                               scoreColumn = 1, # column 1 is the scores 
                               bigIsBetter = TRUE, # larger logFC should be ranked higher
                               annotation = "Generic_human", # ask ermineJ to use the Generic_human annotation file (will automatically download)
                               aspects = "B", # look at only biological processes 
                               iterations = 10000, # 10K sampling iterations so that results are stable
                               geneSetDescription = "GO.xml") # use the GO XML file in current directory

#Now, let's take a look at output$result, which's probably what you care about the most
enrichmentResult$results %>% arrange(MFPvalue)
```

    ## # A tibble: 3,144 x 12
    ##    Name         ID    NumProbes NumGenes RawScore     Pval CorrectedPvalue
    ##    <chr>        <chr>     <int>    <int>    <dbl>    <dbl>           <dbl>
    ##  1 lymphocyte … GO:0…       103      103   0.0430 1.00e-12  0.00000000302 
    ##  2 humoral imm… GO:0…        35       35   0.0735 1.00e-12  0.00000000151 
    ##  3 adaptive im… GO:0…       117      117   0.0407 1.00e-12  0.00000000101 
    ##  4 acute infla… GO:0…        58       58   0.0392 1.00e-12  0.000000000755
    ##  5 platelet de… GO:0…       122      122   0.0340 1.00e-12  0.000000000604
    ##  6 regulation … GO:0…        65       65   0.0371 1.00e-12  0.000000000503
    ##  7 regulation … GO:0…        44       44   0.0499 1.00e-12  0.000000000431
    ##  8 complement … GO:0…        46       46   0.0742 1.00e-12  0.000000000302
    ##  9 complement … GO:0…        32       32   0.0769 1.00e-12  0.000000000274
    ## 10 humoral imm… GO:0…       139      139   0.0577 1.00e-12  0.000000000252
    ## # ... with 3,134 more rows, and 5 more variables: MFPvalue <dbl>,
    ## #   CorrectedMFPvalue <dbl>, Multifunctionality <dbl>, `Same as` <chr>,
    ## #   GeneMembers <chr>
…
