…
# enrichment with Precision-Recall method
enrichmentResult <- precRecall(scores = ermineInputGeneScores, 
                               scoreColumn = 2, # scores 
                               bigIsBetter = TRUE, # rank large logFC higher
                               annotation = "Generic_human", # ermineR Generic_human annotation file
                               aspects = "B", # biological processes 
                               iterations = 10000, # 10K sampling iterations so results are stable
                               geneSetDescription = "GO.xml") # GO XML file


# arrange results by MFP value
enrichmentResult$results %>% arrange(MFPvalue)
```

    ## # A tibble: 3,494 x 12
    ##    Name  ID    NumProbes NumGenes RawScore    Pval CorrectedPvalue MFPvalue
    ##    <chr> <chr>     <dbl>    <dbl>    <dbl>   <dbl>           <dbl>    <dbl>
    ##  1 erro~ GO:0~        20       20   0.0517 0.0004            1     0.000300
    ##  2 nucl~ GO:0~        36       36   0.0308 0.0007            1     0.000600
    ##  3 DNA ~ GO:0~       191      191   0.0194 0.0007            0.781 0.000600
    ##  4 regu~ GO:2~       102      102   0.0178 0.0009            0.502 0.0007  
    ##  5 posi~ GO:2~        62       62   0.0225 0.0009            0.431 0.0008  
    ##  6 thyr~ GO:0~        21       21   0.0458 0.0009            0.754 0.0009  
    ##  7 telo~ GO:0~        22       22   0.0473 0.0009            0.603 0.0009  
    ##  8 nucl~ GO:0~       106      106   0.0173 0.0014            0.521 0.0009  
    ##  9 nucl~ GO:0~        24       24   0.0439 0.00120           0.502 0.00120 
    ## 10 DNA-~ GO:0~       110      110   0.0172 0.0022            0.567 0.00120 
    ## # ... with 3,484 more rows, and 4 more variables: CorrectedMFPvalue <dbl>,
    ## #   Multifunctionality <dbl>, `Same as` <chr>, GeneMembers <chr>
…
